%YAML 1.1
%TAG !u! tag:unity3d.com,2011:
--- !u!1 &8170752514618103492
GameObject:
  m_ObjectHideFlags: 0
  m_CorrespondingSourceObject: {fileID: 0}
  m_PrefabInstance: {fileID: 0}
  m_PrefabAsset: {fileID: 0}
  serializedVersion: 6
  m_Component:
  - component: {fileID: 8170752514618103495}
  - component: {fileID: 8170752514618103489}
  - component: {fileID: 8170752514618103494}
  - component: {fileID: 8170752514618103488}
  - component: {fileID: 422777660627991305}
  m_Layer: 0
  m_Name: Effect_21_GroundScatter 1
  m_TagString: Untagged
  m_Icon: {fileID: 0}
  m_NavMeshLayer: 0
  m_StaticEditorFlags: 0
  m_IsActive: 1
--- !u!4 &8170752514618103495
Transform:
  m_ObjectHideFlags: 0
  m_CorrespondingSourceObject: {fileID: 0}
  m_PrefabInstance: {fileID: 0}
  m_PrefabAsset: {fileID: 0}
  m_GameObject: {fileID: 8170752514618103492}
  m_LocalRotation: {x: 0, y: 0, z: 0, w: 1}
  m_LocalPosition: {x: 0, y: 0, z: 0}
  m_LocalScale: {x: 1, y: 1, z: 1}
  m_Children:
  - {fileID: 4813039057737646283}
  - {fileID: 6537312164183708724}
  - {fileID: 6537312162595752520}
  - {fileID: 6537312163125375512}
  - {fileID: 2482217292691567047}
  m_Father: {fileID: 0}
  m_RootOrder: 0
  m_LocalEulerAnglesHint: {x: 0, y: 0, z: 0}
--- !u!114 &8170752514618103489
MonoBehaviour:
  m_ObjectHideFlags: 0
  m_CorrespondingSourceObject: {fileID: 0}
  m_PrefabInstance: {fileID: 0}
  m_PrefabAsset: {fileID: 0}
  m_GameObject: {fileID: 8170752514618103492}
  m_Enabled: 1
  m_EditorHideFlags: 0
  m_Script: {fileID: 11500000, guid: 0abfeb6d7faeeef489e7b8fa31a364fc, type: 3}
  m_Name: 
  m_EditorClassIdentifier: 
  m_activeObj:
  - {fileID: 472347433041822270}
  m_delayTime: 0.175
--- !u!114 &8170752514618103494
MonoBehaviour:
  m_ObjectHideFlags: 0
  m_CorrespondingSourceObject: {fileID: 0}
  m_PrefabInstance: {fileID: 0}
  m_PrefabAsset: {fileID: 0}
  m_GameObject: {fileID: 8170752514618103492}
  m_Enabled: 1
  m_EditorHideFlags: 0
  m_Script: {fileID: 11500000, guid: 0abfeb6d7faeeef489e7b8fa31a364fc, type: 3}
  m_Name: 
  m_EditorClassIdentifier: 
  m_activeObj:
  - {fileID: 472347432493538370}
  m_delayTime: 0.3
--- !u!114 &8170752514618103488
MonoBehaviour:
  m_ObjectHideFlags: 0
  m_CorrespondingSourceObject: {fileID: 0}
  m_PrefabInstance: {fileID: 0}
  m_PrefabAsset: {fileID: 0}
  m_GameObject: {fileID: 8170752514618103492}
  m_Enabled: 1
  m_EditorHideFlags: 0
  m_Script: {fileID: 11500000, guid: 0abfeb6d7faeeef489e7b8fa31a364fc, type: 3}
  m_Name: 
  m_EditorClassIdentifier: 
  m_activeObj:
  - {fileID: 472347431982965778}
  m_delayTime: 0.475
--- !u!114 &422777660627991305
MonoBehaviour:
  m_ObjectHideFlags: 0
  m_CorrespondingSourceObject: {fileID: 0}
  m_PrefabInstance: {fileID: 0}
  m_PrefabAsset: {fileID: 0}
  m_GameObject: {fileID: 8170752514618103492}
  m_Enabled: 1
  m_EditorHideFlags: 0
  m_Script: {fileID: 11500000, guid: 0abfeb6d7faeeef489e7b8fa31a364fc, type: 3}
  m_Name: 
  m_EditorClassIdentifier: 
  m_activeObj:
  - {fileID: 9098877375461091277}
  m_delayTime: 0.65
--- !u!1001 &698042137850939259
PrefabInstance:
  m_ObjectHideFlags: 0
  serializedVersion: 2
  m_Modification:
    m_TransformParent: {fileID: 8170752514618103495}
    m_Modifications:
    - target: {fileID: 3160799996726113980, guid: c2ae8d95860915148bdf28559c527cbb,
        type: 3}
      propertyPath: m_LocalPosition.x
      value: 0
      objectReference: {fileID: 0}
    - target: {fileID: 3160799996726113980, guid: c2ae8d95860915148bdf28559c527cbb,
        type: 3}
      propertyPath: m_LocalPosition.y
      value: 0
      objectReference: {fileID: 0}
    - target: {fileID: 3160799996726113980, guid: c2ae8d95860915148bdf28559c527cbb,
        type: 3}
      propertyPath: m_LocalPosition.z
      value: 30
      objectReference: {fileID: 0}
    - target: {fileID: 3160799996726113980, guid: c2ae8d95860915148bdf28559c527cbb,
        type: 3}
      propertyPath: m_LocalRotation.x
      value: 0
      objectReference: {fileID: 0}
    - target: {fileID: 3160799996726113980, guid: c2ae8d95860915148bdf28559c527cbb,
        type: 3}
      propertyPath: m_LocalRotation.y
      value: 1
      objectReference: {fileID: 0}
    - target: {fileID: 3160799996726113980, guid: c2ae8d95860915148bdf28559c527cbb,
        type: 3}
      propertyPath: m_LocalRotation.z
      value: 0
      objectReference: {fileID: 0}
    - target: {fileID: 3160799996726113980, guid: c2ae8d95860915148bdf28559c527cbb,
        type: 3}
      propertyPath: m_LocalRotation.w
      value: 0
      objectReference: {fileID: 0}
    - target: {fileID: 3160799996726113980, guid: c2ae8d95860915148bdf28559c527cbb,
        type: 3}
      propertyPath: m_RootOrder
      value: 4
      objectReference: {fileID: 0}
    - target: {fileID: 3160799996726113980, guid: c2ae8d95860915148bdf28559c527cbb,
        type: 3}
      propertyPath: m_LocalEulerAnglesHint.x
      value: 0
      objectReference: {fileID: 0}
    - target: {fileID: 3160799996726113980, guid: c2ae8d95860915148bdf28559c527cbb,
        type: 3}
      propertyPath: m_LocalEulerAnglesHint.y
      value: 180
      objectReference: {fileID: 0}
    - target: {fileID: 3160799996726113980, guid: c2ae8d95860915148bdf28559c527cbb,
        type: 3}
      propertyPath: m_LocalEulerAnglesHint.z
      value: 0
      objectReference: {fileID: 0}
    - target: {fileID: 8640795129183887542, guid: c2ae8d95860915148bdf28559c527cbb,
        type: 3}
      propertyPath: m_Name
      value: Effect_21_GroundScatter(Active5)
      objectReference: {fileID: 0}
    - target: {fileID: 8640795129183887542, guid: c2ae8d95860915148bdf28559c527cbb,
        type: 3}
      propertyPath: m_IsActive
      value: 0
      objectReference: {fileID: 0}
    m_RemovedComponents: []
  m_SourcePrefab: {fileID: 100100000, guid: c2ae8d95860915148bdf28559c527cbb, type: 3}
--- !u!1 &9098877375461091277 stripped
GameObject:
  m_CorrespondingSourceObject: {fileID: 8640795129183887542, guid: c2ae8d95860915148bdf28559c527cbb,
    type: 3}
  m_PrefabInstance: {fileID: 698042137850939259}
  m_PrefabAsset: {fileID: 0}
--- !u!4 &2482217292691567047 stripped
Transform:
  m_CorrespondingSourceObject: {fileID: 3160799996726113980, guid: c2ae8d95860915148bdf28559c527cbb,
    type: 3}
  m_PrefabInstance: {fileID: 698042137850939259}
  m_PrefabAsset: {fileID: 0}
--- !u!1001 &7572296293907887735
PrefabInstance:
  m_ObjectHideFlags: 0
  serializedVersion: 2
  m_Modification:
    m_TransformParent: {fileID: 8170752514618103495}
    m_Modifications:
    - target: {fileID: 3160799996726113980, guid: c2ae8d95860915148bdf28559c527cbb,
        type: 3}
      propertyPath: m_LocalPosition.x
      value: 0
      objectReference: {fileID: 0}
    - target: {fileID: 3160799996726113980, guid: c2ae8d95860915148bdf28559c527cbb,
        type: 3}
      propertyPath: m_LocalPosition.y
      value: 0
      objectReference: {fileID: 0}
    - target: {fileID: 3160799996726113980, guid: c2ae8d95860915148bdf28559c527cbb,
        type: 3}
      propertyPath: m_LocalPosition.z
      value: -10
      objectReference: {fileID: 0}
    - target: {fileID: 3160799996726113980, guid: c2ae8d95860915148bdf28559c527cbb,
        type: 3}
      propertyPath: m_LocalRotation.x
      value: -0
      objectReference: {fileID: 0}
    - target: {fileID: 3160799996726113980, guid: c2ae8d95860915148bdf28559c527cbb,
        type: 3}
      propertyPath: m_LocalRotation.y
      value: -0
      objectReference: {fileID: 0}
    - target: {fileID: 3160799996726113980, guid: c2ae8d95860915148bdf28559c527cbb,
        type: 3}
      propertyPath: m_LocalRotation.z
      value: -0
      objectReference: {fileID: 0}
    - target: {fileID: 3160799996726113980, guid: c2ae8d95860915148bdf28559c527cbb,
        type: 3}
      propertyPath: m_LocalRotation.w
      value: 1
      objectReference: {fileID: 0}
    - target: {fileID: 3160799996726113980, guid: c2ae8d95860915148bdf28559c527cbb,
        type: 3}
      propertyPath: m_RootOrder
      value: 0
      objectReference: {fileID: 0}
    - target: {fileID: 3160799996726113980, guid: c2ae8d95860915148bdf28559c527cbb,
        type: 3}
      propertyPath: m_LocalEulerAnglesHint.x
      value: 0
      objectReference: {fileID: 0}
    - target: {fileID: 3160799996726113980, guid: c2ae8d95860915148bdf28559c527cbb,
        type: 3}
      propertyPath: m_LocalEulerAnglesHint.y
      value: 0
      objectReference: {fileID: 0}
    - target: {fileID: 3160799996726113980, guid: c2ae8d95860915148bdf28559c527cbb,
        type: 3}
      propertyPath: m_LocalEulerAnglesHint.z
      value: 0
      objectReference: {fileID: 0}
    - target: {fileID: 8640795129183887542, guid: c2ae8d95860915148bdf28559c527cbb,
        type: 3}
      propertyPath: m_Name
      value: Effect_21_GroundScatter
      objectReference: {fileID: 0}
    m_RemovedComponents: []
  m_SourcePrefab: {fileID: 100100000, guid: c2ae8d95860915148bdf28559c527cbb, type: 3}
--- !u!4 &4813039057737646283 stripped
Transform:
  m_CorrespondingSourceObject: {fileID: 3160799996726113980, guid: c2ae8d95860915148bdf28559c527cbb,
    type: 3}
  m_PrefabInstance: {fileID: 7572296293907887735}
  m_PrefabAsset: {fileID: 0}
--- !u!1001 &8170752514225325220
PrefabInstance:
  m_ObjectHideFlags: 0
  serializedVersion: 2
  m_Modification:
    m_TransformParent: {fileID: 8170752514618103495}
    m_Modifications:
    - target: {fileID: 3160799996726113980, guid: c2ae8d95860915148bdf28559c527cbb,
        type: 3}
      propertyPath: m_LocalPosition.x
      value: 0
      objectReference: {fileID: 0}
    - target: {fileID: 3160799996726113980, guid: c2ae8d95860915148bdf28559c527cbb,
        type: 3}
      propertyPath: m_LocalPosition.y
      value: 0
      objectReference: {fileID: 0}
    - target: {fileID: 3160799996726113980, guid: c2ae8d95860915148bdf28559c527cbb,
        type: 3}
      propertyPath: m_LocalPosition.z
      value: 20
      objectReference: {fileID: 0}
    - target: {fileID: 3160799996726113980, guid: c2ae8d95860915148bdf28559c527cbb,
        type: 3}
      propertyPath: m_LocalRotation.x
      value: 0
      objectReference: {fileID: 0}
    - target: {fileID: 3160799996726113980, guid: c2ae8d95860915148bdf28559c527cbb,
        type: 3}
      propertyPath: m_LocalRotation.y
      value: 1
      objectReference: {fileID: 0}
    - target: {fileID: 3160799996726113980, guid: c2ae8d95860915148bdf28559c527cbb,
        type: 3}
      propertyPath: m_LocalRotation.z
      value: 0
      objectReference: {fileID: 0}
    - target: {fileID: 3160799996726113980, guid: c2ae8d95860915148bdf28559c527cbb,
        type: 3}
      propertyPath: m_LocalRotation.w
      value: 0
      objectReference: {fileID: 0}
    - target: {fileID: 3160799996726113980, guid: c2ae8d95860915148bdf28559c527cbb,
        type: 3}
      propertyPath: m_RootOrder
      value: 3
      objectReference: {fileID: 0}
    - target: {fileID: 3160799996726113980, guid: c2ae8d95860915148bdf28559c527cbb,
        type: 3}
      propertyPath: m_LocalEulerAnglesHint.x
      value: 0
      objectReference: {fileID: 0}
    - target: {fileID: 3160799996726113980, guid: c2ae8d95860915148bdf28559c527cbb,
        type: 3}
      propertyPath: m_LocalEulerAnglesHint.y
      value: 180
      objectReference: {fileID: 0}
    - target: {fileID: 3160799996726113980, guid: c2ae8d95860915148bdf28559c527cbb,
        type: 3}
      propertyPath: m_LocalEulerAnglesHint.z
      value: 0
      objectReference: {fileID: 0}
    - target: {fileID: 8640795129183887542, guid: c2ae8d95860915148bdf28559c527cbb,
        type: 3}
      propertyPath: m_Name
      value: Effect_21_GroundScatter(Active4)
      objectReference: {fileID: 0}
    - target: {fileID: 8640795129183887542, guid: c2ae8d95860915148bdf28559c527cbb,
        type: 3}
      propertyPath: m_IsActive
      value: 0
      objectReference: {fileID: 0}
    m_RemovedComponents: []
  m_SourcePrefab: {fileID: 100100000, guid: c2ae8d95860915148bdf28559c527cbb, type: 3}
--- !u!1 &472347431982965778 stripped
GameObject:
  m_CorrespondingSourceObject: {fileID: 8640795129183887542, guid: c2ae8d95860915148bdf28559c527cbb,
    type: 3}
  m_PrefabInstance: {fileID: 8170752514225325220}
  m_PrefabAsset: {fileID: 0}
--- !u!4 &6537312163125375512 stripped
Transform:
  m_CorrespondingSourceObject: {fileID: 3160799996726113980, guid: c2ae8d95860915148bdf28559c527cbb,
    type: 3}
  m_PrefabInstance: {fileID: 8170752514225325220}
  m_PrefabAsset: {fileID: 0}
--- !u!1001 &8170752514790407412
PrefabInstance:
  m_ObjectHideFlags: 0
  serializedVersion: 2
  m_Modification:
    m_TransformParent: {fileID: 8170752514618103495}
    m_Modifications:
    - target: {fileID: 3160799996726113980, guid: c2ae8d95860915148bdf28559c527cbb,
        type: 3}
      propertyPath: m_LocalPosition.x
      value: 0
      objectReference: {fileID: 0}
    - target: {fileID: 3160799996726113980, guid: c2ae8d95860915148bdf28559c527cbb,
        type: 3}
      propertyPath: m_LocalPosition.y
      value: 0
      objectReference: {fileID: 0}
    - target: {fileID: 3160799996726113980, guid: c2ae8d95860915148bdf28559c527cbb,
        type: 3}
      propertyPath: m_LocalPosition.z
      value: 10
      objectReference: {fileID: 0}
    - target: {fileID: 3160799996726113980, guid: c2ae8d95860915148bdf28559c527cbb,
        type: 3}
      propertyPath: m_LocalRotation.x
      value: 0
      objectReference: {fileID: 0}
    - target: {fileID: 3160799996726113980, guid: c2ae8d95860915148bdf28559c527cbb,
        type: 3}
      propertyPath: m_LocalRotation.y
      value: 1
      objectReference: {fileID: 0}
    - target: {fileID: 3160799996726113980, guid: c2ae8d95860915148bdf28559c527cbb,
        type: 3}
      propertyPath: m_LocalRotation.z
      value: 0
      objectReference: {fileID: 0}
    - target: {fileID: 3160799996726113980, guid: c2ae8d95860915148bdf28559c527cbb,
        type: 3}
      propertyPath: m_LocalRotation.w
      value: 0
      objectReference: {fileID: 0}
    - target: {fileID: 3160799996726113980, guid: c2ae8d95860915148bdf28559c527cbb,
        type: 3}
      propertyPath: m_RootOrder
      value: 2
      objectReference: {fileID: 0}
    - target: {fileID: 3160799996726113980, guid: c2ae8d95860915148bdf28559c527cbb,
        type: 3}
      propertyPath: m_LocalEulerAnglesHint.x
      value: 0
      objectReference: {fileID: 0}
    - target: {fileID: 3160799996726113980, guid: c2ae8d95860915148bdf28559c527cbb,
        type: 3}
      propertyPath: m_LocalEulerAnglesHint.y
      value: 180
      objectReference: {fileID: 0}
    - target: {fileID: 3160799996726113980, guid: c2ae8d95860915148bdf28559c527cbb,
        type: 3}
      propertyPath: m_LocalEulerAnglesHint.z
      value: 0
      objectReference: {fileID: 0}
    - target: {fileID: 8640795129183887542, guid: c2ae8d95860915148bdf28559c527cbb,
        type: 3}
      propertyPath: m_Name
      value: Effect_21_GroundScatter(Active3)
      objectReference: {fileID: 0}
    - target: {fileID: 8640795129183887542, guid: c2ae8d95860915148bdf28559c527cbb,
        type: 3}
      propertyPath: m_IsActive
      value: 0
      objectReference: {fileID: 0}
    m_RemovedComponents: []
  m_SourcePrefab: {fileID: 100100000, guid: c2ae8d95860915148bdf28559c527cbb, type: 3}
--- !u!1 &472347432493538370 stripped
GameObject:
  m_CorrespondingSourceObject: {fileID: 8640795129183887542, guid: c2ae8d95860915148bdf28559c527cbb,
    type: 3}
  m_PrefabInstance: {fileID: 8170752514790407412}
  m_PrefabAsset: {fileID: 0}
--- !u!4 &6537312162595752520 stripped
Transform:
  m_CorrespondingSourceObject: {fileID: 3160799996726113980, guid: c2ae8d95860915148bdf28559c527cbb,
    type: 3}
  m_PrefabInstance: {fileID: 8170752514790407412}
  m_PrefabAsset: {fileID: 0}
--- !u!1001 &8170752515313820296
PrefabInstance:
  m_ObjectHideFlags: 0
  serializedVersion: 2
  m_Modification:
    m_TransformParent: {fileID: 8170752514618103495}
    m_Modifications:
    - target: {fileID: 3160799996726113980, guid: c2ae8d95860915148bdf28559c527cbb,
        type: 3}
      propertyPath: m_LocalPosition.x
      value: 0
      objectReference: {fileID: 0}
    - target: {fileID: 3160799996726113980, guid: c2ae8d95860915148bdf28559c527cbb,
        type: 3}
      propertyPath: m_LocalPosition.y
      value: 0
      objectReference: {fileID: 0}
    - target: {fileID: 3160799996726113980, guid: c2ae8d95860915148bdf28559c527cbb,
        type: 3}
      propertyPath: m_LocalPosition.z
      value: 0
      objectReference: {fileID: 0}
    - target: {fileID: 3160799996726113980, guid: c2ae8d95860915148bdf28559c527cbb,
        type: 3}
      propertyPath: m_LocalRotation.x
      value: -0
      objectReference: {fileID: 0}
    - target: {fileID: 3160799996726113980, guid: c2ae8d95860915148bdf28559c527cbb,
        type: 3}
      propertyPath: m_LocalRotation.y
      value: 0.7071068
      objectReference: {fileID: 0}
    - target: {fileID: 3160799996726113980, guid: c2ae8d95860915148bdf28559c527cbb,
        type: 3}
      propertyPath: m_LocalRotation.z
      value: -0
      objectReference: {fileID: 0}
    - target: {fileID: 3160799996726113980, guid: c2ae8d95860915148bdf28559c527cbb,
        type: 3}
      propertyPath: m_LocalRotation.w
      value: 0.7071068
      objectReference: {fileID: 0}
    - target: {fileID: 3160799996726113980, guid: c2ae8d95860915148bdf28559c527cbb,
        type: 3}
      propertyPath: m_RootOrder
      value: 1
      objectReference: {fileID: 0}
    - target: {fileID: 3160799996726113980, guid: c2ae8d95860915148bdf28559c527cbb,
        type: 3}
      propertyPath: m_LocalEulerAnglesHint.x
      value: 0
      objectReference: {fileID: 0}
    - target: {fileID: 3160799996726113980, guid: c2ae8d95860915148bdf28559c527cbb,
        type: 3}
      propertyPath: m_LocalEulerAnglesHint.y
      value: 90
      objectReference: {fileID: 0}
    - target: {fileID: 3160799996726113980, guid: c2ae8d95860915148bdf28559c527cbb,
        type: 3}
      propertyPath: m_LocalEulerAnglesHint.z
      value: 0
      objectReference: {fileID: 0}
    - target: {fileID: 8640795129183887542, guid: c2ae8d95860915148bdf28559c527cbb,
        type: 3}
      propertyPath: m_Name
      value: Effect_21_GroundScatter(Active2)
      objectReference: {fileID: 0}
    - target: {fileID: 8640795129183887542, guid: c2ae8d95860915148bdf28559c527cbb,
        type: 3}
      propertyPath: m_IsActive
      value: 0
      objectReference: {fileID: 0}
    m_RemovedComponents: []
  m_SourcePrefab: {fileID: 100100000, guid: c2ae8d95860915148bdf28559c527cbb, type: 3}
--- !u!1 &472347433041822270 stripped
GameObject:
  m_CorrespondingSourceObject: {fileID: 8640795129183887542, guid: c2ae8d95860915148bdf28559c527cbb,
    type: 3}
  m_PrefabInstance: {fileID: 8170752515313820296}
  m_PrefabAsset: {fileID: 0}
--- !u!4 &6537312164183708724 stripped
Transform:
  m_CorrespondingSourceObject: {fileID: 3160799996726113980, guid: c2ae8d95860915148bdf28559c527cbb,
    type: 3}
  m_PrefabInstance: {fileID: 8170752515313820296}
  m_PrefabAsset: {fileID: 0}
