%YAML 1.1
%TAG !u! tag:unity3d.com,2011:
--- !u!1 &2148622086276741671
GameObject:
  m_ObjectHideFlags: 0
  m_CorrespondingSourceObject: {fileID: 0}
  m_PrefabInstance: {fileID: 0}
  m_PrefabAsset: {fileID: 0}
  serializedVersion: 6
  m_Component:
  - component: {fileID: 2148622086276741670}
  m_Layer: 0
  m_Name: effect_4
  m_TagString: Untagged
  m_Icon: {fileID: 0}
  m_NavMeshLayer: 0
  m_StaticEditorFlags: 0
  m_IsActive: 1
--- !u!4 &2148622086276741670
Transform:
  m_ObjectHideFlags: 0
  m_CorrespondingSourceObject: {fileID: 0}
  m_PrefabInstance: {fileID: 0}
  m_PrefabAsset: {fileID: 0}
  m_GameObject: {fileID: 2148622086276741671}
  m_LocalRotation: {x: 0, y: 0, z: 0, w: 1}
  m_LocalPosition: {x: 0, y: 0, z: 0}
  m_LocalScale: {x: 1, y: 1, z: 1}
  m_Children:
  - {fileID: 7207465917197642651}
  m_Father: {fileID: 0}
  m_RootOrder: 0
  m_LocalEulerAnglesHint: {x: 0, y: 0, z: 0}
--- !u!1001 &2148622086337145660
PrefabInstance:
  m_ObjectHideFlags: 0
  serializedVersion: 2
  m_Modification:
    m_TransformParent: {fileID: 2148622086276741670}
    m_Modifications:
    - target: {fileID: 3961298236513812570, guid: 875ea4dabd5fab5468283cd5739b2c31,
        type: 3}
      propertyPath: m_IsActive
      value: 1
      objectReference: {fileID: 0}
    - target: {fileID: 5547746878768618973, guid: 875ea4dabd5fab5468283cd5739b2c31,
        type: 3}
      propertyPath: m_IsActive
      value: 1
      objectReference: {fileID: 0}
    - target: {fileID: 6978191506689290272, guid: 875ea4dabd5fab5468283cd5739b2c31,
        type: 3}
      propertyPath: m_IsActive
      value: 1
      objectReference: {fileID: 0}
    - target: {fileID: 8070236551889511211, guid: 875ea4dabd5fab5468283cd5739b2c31,
        type: 3}
      propertyPath: m_IsActive
      value: 1
      objectReference: {fileID: 0}
    - target: {fileID: 8779592066186592422, guid: 875ea4dabd5fab5468283cd5739b2c31,
        type: 3}
      propertyPath: m_Name
      value: Effect_24_LightningStrike 1
      objectReference: {fileID: 0}
    - target: {fileID: 8779592066186592423, guid: 875ea4dabd5fab5468283cd5739b2c31,
        type: 3}
      propertyPath: m_RootOrder
      value: 0
      objectReference: {fileID: 0}
    - target: {fileID: 8779592066186592423, guid: 875ea4dabd5fab5468283cd5739b2c31,
        type: 3}
      propertyPath: m_LocalPosition.x
      value: 0
      objectReference: {fileID: 0}
    - target: {fileID: 8779592066186592423, guid: 875ea4dabd5fab5468283cd5739b2c31,
        type: 3}
      propertyPath: m_LocalPosition.y
      value: 0
      objectReference: {fileID: 0}
    - target: {fileID: 8779592066186592423, guid: 875ea4dabd5fab5468283cd5739b2c31,
        type: 3}
      propertyPath: m_LocalPosition.z
      value: 0.52
      objectReference: {fileID: 0}
    - target: {fileID: 8779592066186592423, guid: 875ea4dabd5fab5468283cd5739b2c31,
        type: 3}
      propertyPath: m_LocalRotation.w
      value: 0
      objectReference: {fileID: 0}
    - target: {fileID: 8779592066186592423, guid: 875ea4dabd5fab5468283cd5739b2c31,
        type: 3}
      propertyPath: m_LocalRotation.x
      value: 0
      objectReference: {fileID: 0}
    - target: {fileID: 8779592066186592423, guid: 875ea4dabd5fab5468283cd5739b2c31,
        type: 3}
      propertyPath: m_LocalRotation.y
      value: 1
      objectReference: {fileID: 0}
    - target: {fileID: 8779592066186592423, guid: 875ea4dabd5fab5468283cd5739b2c31,
        type: 3}
      propertyPath: m_LocalRotation.z
      value: 0
      objectReference: {fileID: 0}
    - target: {fileID: 8779592066186592423, guid: 875ea4dabd5fab5468283cd5739b2c31,
        type: 3}
      propertyPath: m_LocalEulerAnglesHint.x
      value: 0
      objectReference: {fileID: 0}
    - target: {fileID: 8779592066186592423, guid: 875ea4dabd5fab5468283cd5739b2c31,
        type: 3}
      propertyPath: m_LocalEulerAnglesHint.y
      value: 180
      objectReference: {fileID: 0}
    - target: {fileID: 8779592066186592423, guid: 875ea4dabd5fab5468283cd5739b2c31,
        type: 3}
      propertyPath: m_LocalEulerAnglesHint.z
      value: 0
      objectReference: {fileID: 0}
    m_RemovedComponents: []
  m_SourcePrefab: {fileID: 100100000, guid: 875ea4dabd5fab5468283cd5739b2c31, type: 3}
--- !u!4 &7207465917197642651 stripped
Transform:
  m_CorrespondingSourceObject: {fileID: 8779592066186592423, guid: 875ea4dabd5fab5468283cd5739b2c31,
    type: 3}
  m_PrefabInstance: {fileID: 2148622086337145660}
  m_PrefabAsset: {fileID: 0}
