%YAML 1.1
%TAG !u! tag:unity3d.com,2011:
--- !u!1 &1680285951059680
GameObject:
  m_ObjectHideFlags: 0
  m_CorrespondingSourceObject: {fileID: 0}
  m_PrefabInstance: {fileID: 0}
  m_PrefabAsset: {fileID: 0}
  serializedVersion: 6
  m_Component:
  - component: {fileID: 4438759992318730}
  - component: {fileID: 114093725525586166}
  - component: {fileID: 114323009579762808}
  - component: {fileID: 114107260843700336}
  m_Layer: 0
  m_Name: Effect_36_JudgementSwordFall(ForEffectScene) 1
  m_TagString: Untagged
  m_Icon: {fileID: 0}
  m_NavMeshLayer: 0
  m_StaticEditorFlags: 0
  m_IsActive: 1
--- !u!4 &4438759992318730
Transform:
  m_ObjectHideFlags: 0
  m_CorrespondingSourceObject: {fileID: 0}
  m_PrefabInstance: {fileID: 0}
  m_PrefabAsset: {fileID: 0}
  m_GameObject: {fileID: 1680285951059680}
  m_LocalRotation: {x: -0.7071068, y: 0, z: 0, w: 0.7071068}
  m_LocalPosition: {x: 0, y: 0, z: 0}
  m_LocalScale: {x: 1, y: 1, z: 1}
  m_Children: []
  m_Father: {fileID: 0}
  m_RootOrder: 0
  m_LocalEulerAnglesHint: {x: -90, y: 0, z: 0}
--- !u!114 &114093725525586166
MonoBehaviour:
  m_ObjectHideFlags: 0
  m_CorrespondingSourceObject: {fileID: 0}
  m_PrefabInstance: {fileID: 0}
  m_PrefabAsset: {fileID: 0}
  m_GameObject: {fileID: 1680285951059680}
  m_Enabled: 1
  m_EditorHideFlags: 0
  m_Script: {fileID: 11500000, guid: d90f358e0f0235242a422a856b10775e, type: 3}
  m_Name: 
  m_EditorClassIdentifier: 
  m_makeObjs:
  - {fileID: 1273423197328856, guid: 37a26c97c4468464d8fe69fa05d644a1, type: 3}
  m_movePos: {fileID: 0}
  m_randomRotationValue: {x: 0, y: 0, z: 0}
--- !u!114 &114323009579762808
MonoBehaviour:
  m_ObjectHideFlags: 0
  m_CorrespondingSourceObject: {fileID: 0}
  m_PrefabInstance: {fileID: 0}
  m_PrefabAsset: {fileID: 0}
  m_GameObject: {fileID: 1680285951059680}
  m_Enabled: 1
  m_EditorHideFlags: 0
  m_Script: {fileID: 11500000, guid: 68d7d7212b879ab4585fd513785a9d81, type: 3}
  m_Name: 
  m_EditorClassIdentifier: 
  m_makeObjs:
  - {fileID: 1112003764194682, guid: 6fff3db1f47209c42a3b0401f3702fe5, type: 3}
  - {fileID: 1834140658599500, guid: 24c9fc8b7a870f94a942309096f9434f, type: 3}
  - {fileID: 1412946584460934, guid: c4b0b496d96fad24c958914d76eb3f2a, type: 3}
  m_movePos: {fileID: 0}
  m_interval: 2
  m_makeCount: 8
  m_makeDelay: 0.1
  m_startDelay: 0
--- !u!114 &114107260843700336
MonoBehaviour:
  m_ObjectHideFlags: 0
  m_CorrespondingSourceObject: {fileID: 0}
  m_PrefabInstance: {fileID: 0}
  m_PrefabAsset: {fileID: 0}
  m_GameObject: {fileID: 1680285951059680}
  m_Enabled: 1
  m_EditorHideFlags: 0
  m_Script: {fileID: 11500000, guid: 15b34ff232254a54b963f6c878c0d9d4, type: 3}
  m_Name: 
  m_EditorClassIdentifier: 
  m_makeObjs:
  - {fileID: 1689599926488056, guid: 57a9f653e4268664c87f1faa5372f22e, type: 3}
  - {fileID: 1611907595229422, guid: e172217810ef7c9488460b18c095cbd9, type: 3}
  - {fileID: 1738600388936428, guid: 929bfea6ba830cf4086faa86fe18d922, type: 3}
  m_movePos: {fileID: 0}
  m_startDelay: 5.5
